DATA_PARENT_ENTRY_ID	NAME	CREATED_DATETIME
320	Nenneke	1993-01-10T14:30:00+00:00
384	Pavetta	1991-02-20T04:30:00+00:00
352	Yennifer of Vengerberg	1990-02-24T02:30:00+00:00
464	Geralt of Rivia	1989-04-01T04:30:00+00:00
400	Cirilla Fiona Elen Riannon	1991-02-20T04:30:00+00:00
464	Cirilla Fiona Elen Riannon	1991-02-20T04:30:00+00:00
384	Regan Dahlberg	1991-03-01T03:30:00+00:00
464	Dandylion	1992-07-20T12:30:00+00:00
544	Condwiramurs Tilly	1990-12-20T01:30:00+00:00
