ENTRY_ID,DATA_ID,TITLE,IMPORTANT_DATE
384,978-1-4732-1153-7,"Sword of Destiny","02-02-1992 02:02:02"
464,978-0-316-27371-8,"The Tower of the Swallow ","06-06-1997 06:06:06"
288,978-0-575-08244-1,"The Last Wish","01-01-1993 01:01:01"
320,978-0-575-08484-1,"Blood of Elves","03-03-1994 03:03:03"
400,978-0-575-09097-2,"Baptism of Fire","05-05-1996 05:05:05"
544,978-0-316-27383-1,"The Lady of the Lake","07-07-1999 07:07:07"
352,978-0-575-09094-1,"Time of Contempt","04-04-1995 04:04:04"
